		# ====================================================================== #
		#  _____              _   _  _                  _____          __  _     #
		# /  ___|            | | | |(_)                /  ___|        / _|| |    #
		# \ `--.  _   _  ___ | | | | _   ___ __      __\ `--.   ___  | |_ | |_   #
		#  `--. \| | | |/ __|| | | || | / _ \\ \ /\ / / `--. \ / _ \ |  _|| __|  #
		# /\__/ /| |_| |\__ \\ \_/ /| ||  __/ \ V  V / /\__/ /| (_) || |  | |_   #
		# \____/  \__, ||___/ \___/ |_| \___|  \_/\_/  \____/  \___/ |_|   \__|  #
		#          __/ |                                                         #
		#         |___/                                                          #
		# ====================================================================== #

				____  ____  ____  ____  ____  ____  ____  ____  ____  ____  ____ 
				||K ||||8 ||||S ||||  ||||N ||||O ||||D ||||O ||||  ||||0 ||||1 ||
				||__||||__||||__||||__||||__||||__||||__||||__||||__||||__||||__||
				|/__\||/__\||/__\||/__\||/__\||/__\||/__\||/__\||/__\||/__\||/__\|
																




